<?xml version="1.0" encoding="utf-8"?>
<!-- Generator: Adobe Illustrator 16.0.0, SVG Export Plug-In . SVG Version: 6.00 Build 0)  -->
<!DOCTYPE svg PUBLIC "-//W3C//DTD SVG 1.1//EN" "http://www.w3.org/Graphics/SVG/1.1/DTD/svg11.dtd" [
	<!ENTITY ns_flows "http://ns.adobe.com/Flows/1.0/">
	<!ENTITY ns_extend "http://ns.adobe.com/Extensibility/1.0/">
	<!ENTITY ns_ai "http://ns.adobe.com/AdobeIllustrator/10.0/">
	<!ENTITY ns_graphs "http://ns.adobe.com/Graphs/1.0/">
	<!ENTITY ns_vars "http://ns.adobe.com/Variables/1.0/">
	<!ENTITY ns_imrep "http://ns.adobe.com/ImageReplacement/1.0/">
	<!ENTITY ns_sfw "http://ns.adobe.com/SaveForWeb/1.0/">
	<!ENTITY ns_custom "http://ns.adobe.com/GenericCustomNamespace/1.0/">
	<!ENTITY ns_adobe_xpath "http://ns.adobe.com/XPath/1.0/">
]>
<svg version="1.1" id="Layer_1" xmlns:x="&ns_extend;" xmlns:i="&ns_ai;" xmlns:graph="&ns_graphs;"
	 xmlns="http://www.w3.org/2000/svg" xmlns:xlink="http://www.w3.org/1999/xlink" xmlns:a="http://ns.adobe.com/AdobeSVGViewerExtensions/3.0/"
	 x="0px" y="0px" width="453.543px" height="481.89px" viewBox="0 0 453.543 481.89" enable-background="new 0 0 453.543 481.89"
	 xml:space="preserve">
<metadata><?xpacket begin="﻿" id="W5M0MpCehiHzreSzNTczkc9d"?>
<x:xmpmeta xmlns:x="adobe:ns:meta/" x:xmptk="Adobe XMP Core 5.3-c011 66.145661, 2012/02/06-14:56:27        ">
   <rdf:RDF xmlns:rdf="http://www.w3.org/1999/02/22-rdf-syntax-ns#">
      <rdf:Description rdf:about=""
            xmlns:xmp="http://ns.adobe.com/xap/1.0/"
            xmlns:xmpGImg="http://ns.adobe.com/xap/1.0/g/img/">
         <xmp:CreatorTool>Adobe Illustrator CS6 (Macintosh)</xmp:CreatorTool>
         <xmp:CreateDate>2014-07-23T12:44:18+02:00</xmp:CreateDate>
         <xmp:ModifyDate>2014-07-23T12:44:18+02:00</xmp:ModifyDate>
         <xmp:MetadataDate>2014-07-23T12:44:18+02:00</xmp:MetadataDate>
         <xmp:Thumbnails>
            <rdf:Alt>
               <rdf:li rdf:parseType="Resource">
                  <xmpGImg:width>256</xmpGImg:width>
                  <xmpGImg:height>256</xmpGImg:height>
                  <xmpGImg:format>JPEG</xmpGImg:format>
                  <xmpGImg:image>/9j/4AAQSkZJRgABAgEASABIAAD/7QAsUGhvdG9zaG9wIDMuMAA4QklNA+0AAAAAABAASAAAAAEA&#xA;AQBIAAAAAQAB/+4ADkFkb2JlAGTAAAAAAf/bAIQABgQEBAUEBgUFBgkGBQYJCwgGBggLDAoKCwoK&#xA;DBAMDAwMDAwQDA4PEA8ODBMTFBQTExwbGxscHx8fHx8fHx8fHwEHBwcNDA0YEBAYGhURFRofHx8f&#xA;Hx8fHx8fHx8fHx8fHx8fHx8fHx8fHx8fHx8fHx8fHx8fHx8fHx8fHx8fHx8f/8AAEQgBAAEAAwER&#xA;AAIRAQMRAf/EAaIAAAAHAQEBAQEAAAAAAAAAAAQFAwIGAQAHCAkKCwEAAgIDAQEBAQEAAAAAAAAA&#xA;AQACAwQFBgcICQoLEAACAQMDAgQCBgcDBAIGAnMBAgMRBAAFIRIxQVEGE2EicYEUMpGhBxWxQiPB&#xA;UtHhMxZi8CRygvElQzRTkqKyY3PCNUQnk6OzNhdUZHTD0uIIJoMJChgZhJRFRqS0VtNVKBry4/PE&#xA;1OT0ZXWFlaW1xdXl9WZ2hpamtsbW5vY3R1dnd4eXp7fH1+f3OEhYaHiImKi4yNjo+Ck5SVlpeYmZ&#xA;qbnJ2en5KjpKWmp6ipqqusra6voRAAICAQIDBQUEBQYECAMDbQEAAhEDBCESMUEFURNhIgZxgZEy&#xA;obHwFMHR4SNCFVJicvEzJDRDghaSUyWiY7LCB3PSNeJEgxdUkwgJChgZJjZFGidkdFU38qOzwygp&#xA;0+PzhJSktMTU5PRldYWVpbXF1eX1RlZmdoaWprbG1ub2R1dnd4eXp7fH1+f3OEhYaHiImKi4yNjo&#xA;+DlJWWl5iZmpucnZ6fkqOkpaanqKmqq6ytrq+v/aAAwDAQACEQMRAD8A9U4q7FXYq7FXYq7FXYq7&#xA;FXYq7FUh8z+fPJ3leLnr+r22nkjksMjgzMPFIV5SN/sVxV5F5k/5y88o2ZePQNJutVkXYTTstpCf&#xA;ddpZD9KDFXmmuf8AOV/5m3zONOSy0mI/3Zhh9aQD3acyIT/sBgVhWqfnJ+aep1+teaNQUHqtvMbZ&#xA;TsRQrB6YpvirHbvzF5gvSTeand3JaoJmnkkry6/aY9cVS/FXYqmFp5i8wWRBs9Tu7YrQAwzyR049&#xA;PssOmKsi0v8AOT809Mp9V80agwHRbiY3KjYCgWf1BTbFWa6H/wA5X/mbYlF1FLLVox/eGaH0ZSPZ&#xA;oDGgP+wOKvS/Lf8Azl55QvCsev6VdaTIdjNCy3cI9zQRSD6EOFXrvljz55O80Rc9A1e21Agcmhjc&#xA;CZR4vC3GRf8AZLiqfYq7FXYq7FXYq7FXYq7FXYq7FXYq7FXYq7FXYq7FXYq7FWBfmH+dfkXyOjw6&#xA;hd/W9WA+HSrSkk9T09TcLEP9Y18AcVfNvnn/AJyb/MHzEZLfSpB5e05gR6doxNwQf5rkgMD/AMYw&#xA;uBXneieWPN/mzUHXSbC71e8kas8qK8lGbflLKfhWvizYq9b8sf8AOJHne/VZdev7XRY2AJhWt3OP&#xA;EMqFIvukOKvT9D/5xP8Ay0saPqUl7q7/ALSSzCGL6FgEbj/g8Ks30z8m/wArNNVVtvK+ntxpxa4h&#xA;Fy23flP6jV+nFWSW2haHarwtdOtoFpTjFDGgoPZQMVR2KtMqspVgGVhQg7gg4ql955b8u3y8b3S7&#xA;O6U7ETQRSD/hlPjirGNU/JH8p9TQrceWLKOve1Q2hHyNuYsVYLr3/OI/kK8DPpF/e6VKfsqWW5hH&#xA;+xcLIf8AkZiry3zR/wA4pfmLpYebSJLbXbdfspC3oXBHiY5aJ9AkJwK8o1HSfMXlzUxDqFrdaTqM&#xA;LcoxKjwSqVOzoTxPXowxV6Z5G/5yb/MHy6Y7fVZB5h05QB6d2xFwAP5bkAsT/wAZA2KvpL8vPzr8&#xA;i+eESHT7v6pqxHxaVd0jnqOvp7lZR/qmviBhVnuKuxV2KuxV2KuxV2KuxV2KuxV2KuxV2KuxVL9f&#xA;8w6L5f0ubVdavI7GwgFZJ5TQVPRVHVmPZRucVfLH5p/85Qa7rjTaX5Q9TSNJNUbUK8byZelVI/uV&#xA;P+T8XuOmBXmHkz8vPOnnnUHi0Oxku/j/ANKvpDxgjLbkyzNty3rTdj2BxV9KeQv+cVPKOkCK780T&#xA;Nrt+AC1sKxWat/qikklP8ogH+XCr2NE0Ly/pVEW10nSbReg9O2t4kH/AooxV5r5q/wCcm/yv0Nnh&#xA;tLqXW7pSVKWCcowR4zSGOMj3QtiryrX/APnMDzZcFl0PRbPTozsHuWkupB7gr6CD6VOBWBar+f8A&#xA;+bupgrN5imgQnZbRIransGhRH+9sVYzeeevO98KXvmHU7kbGk15PIKjp9pziqVPqF+7s73MrOxqz&#xA;F2JJPUkk4qui1PUoXEkN3NG46Okjqd/cHFU2s/zB8+2QVbPzJqlui7BI7y4VaVrTiHpirKdJ/wCc&#xA;ifze03gq6613EvWO7hhm5fN2T1P+GxVn+gf85h69EQmv6DbXabAy2Uj27Adzwk9cMfpXFXrHlT/n&#xA;I78rPMLLC2oto903SHU1EC7D/fwLwD6XB9sKs81XRfL3mPTfq2p2ltqmnTAMqyqk0ZB3DITX6CMV&#xA;eFef/wDnErSroSXnkq8+oT9f0ZeM0kDe0c3xSJ/suXzGKvnPzJ5U80eUtV+pa3ZTadexnlEzbBuJ&#xA;+3FIvwsAe6nAr1z8rP8AnKDXdDaHS/N/qavpIoi6hXleQr0qxP8AfKP8r4vc9MVfU+geYdF8waXD&#xA;qui3kd9YTisc8RqKjqrDqrDup3GFUwxV2KuxV2KuxV2KuxV2KuxV2KuxVh35mfml5b8gaP8AXdUf&#xA;1r2YEWGmxketO4+f2UWvxOenuaAqvjDz/wDmR5r8/wCtC61WZmjDcbDTIeXowhjQLGn7THux+I/K&#xA;gwK9b/KX/nF25vlh1nz0r2towDwaIhKTuOoNww3jBH7C/F4lemKvpJU8ueVtDoottH0WwT/IggiQ&#xA;bbk0UVP3nCrwf8w/+ctLG2aSx8j2gvJB8J1a8VlhB8YoPhd/m5Xf9kjAr5580+ePNvmu7+teYNUn&#xA;1BwSyRyNSKMn/fcS8Y0/2KjFUjxV2KuxV2KuxV2KuxV2KuxV2Ksm8nfmV528nTh9A1Wa2hryks2P&#xA;qWz7ivKF6pU0+0By8Dir6o/JP8+2/MC8k0W/0prTWLe3NzLc255WjojKhNHPOMlnFF+L54VeleZf&#xA;Kvl/zNpcml67Yx31lJ/uuQbqf5kcUZG/ylIOKvlL83P+cbdb8rLPrHlr1NW0BKvLBTld2y9SWVR+&#xA;8QfzKKjuKb4Fef8A5efmX5o8iauL7Rrgm3kI+u6fISbedR2dezD9lxuPlUFV9o/ln+aXlvz/AKP9&#xA;d0t/RvYQBf6bIR60Dn5faRqfC46+xqAVZjirsVdirsVdirsVdirsVdirA/zb/NvRfy90X1puN1rV&#xA;0pGm6aDQuRt6klN1iU9T36D2VfF2oaj5u8/+bPWnM2q67qcgSKJBXqfhjjXokafcBucCvq/8mPyA&#xA;0jyVFFq+srHqHmlhUS05Q2lR9mCvV/GSlewoK1KvXsVeD/8AOX2nvL5F0m+UtS11IRugJ48ZoZPi&#xA;YexjAB98VfJWBXYq7FXYq7FXYq7FXYq7FXYq7FXYq7FX1l/ziN5SNj5S1HzLMtJdYnENsT/yz2tV&#xA;LA/5UrOD/qjCr3vFXYq8A/O3/nG+11dJ/MXkyBbfVxWS70lKJFcmtS0XRY5PEdG9j1VfNPl/zD5i&#xA;8o+YI9S0yaSw1WxkKOrAqaqaPFKhpVTSjK2BX2x+Uf5uaL+YeimaEC01m0AGo6cSCVJA/exb1aJj&#xA;0PUHY+5VnuKuxV2KuxV2KuxV2KsO/NL8zNH8geW31S9pNezVj02wBo881K+/FF6u3b5kAqviS+vv&#xA;Nv5g+cPVl56lr2rTBIYl6VP2Y0BNEjQfQBucCvsP8mfyZ0r8vtK9abhd+ZLtAL+/AqEB39CCu4jB&#xA;6nqx3PYAq9JxV2KvOf8AnIbSTqf5Q6+iKGltUiu4yRXj6EyO5H/PMNir4YwK7FXYq7FXYq7FXYq7&#xA;FXYq7FXYq7FVW0tbi7uobS2Qy3Fw6xQxLuWdyFVR7knFX6IeT/Llt5a8raXoNvQx6dbRwFwKc3Uf&#xA;vJKeLvVj88KpxirsVdirxT8+fyGtfNlrP5i8uwLF5piUNNCpCpeoo6HsJgPst36HsQq+VfL3mDzB&#xA;5R8xQ6npskljqthIVZHBU1U0eKVDSqmnFlOBX3J+Vv5maP5/8tpqllSG9hpHqVgTV4JqV9uSN1Ru&#xA;/wAwQCrMcVdirsVdirsVS/zDr+l+X9FvNa1WYQWFjGZZ5DuaDoqjuzHZR3OKvhD8xfPuufmF5uk1&#xA;K4Vysj+hpWnJV/SiLUjiRR9p2J+I/tN9AwK+pvyF/Ji38j6QNU1SNZPNOoRj6wxo31WI7/V0O+/+&#xA;/GHU7dBuVepwXlpcSTxQTxyyWr+lcojBmjkKq/BwD8LcHVqHsRiqtirsVS7zHpK6x5e1TSGNF1G0&#xA;ntGPgJ4mj/42xV+cjKysVYUZTQg9QRgVrFXYq7FXYq7FXYq7FXYq7FXYq7FXq3/ONHlL9PfmfZ3U&#xA;sfOy0NG1CYkHj6iUS3Ff5hKwcf6pxV9r4VdirsVdiqSad528q6j5ivvLljqUNxrOmor3lojVZQxo&#xA;aHoxQ7OFJ41HKlcVeN/85IfkmusWs/nPy9B/uXtk56taRgk3MSCnqqB/uyNRuP2l9xuq+fPy0/MP&#xA;V/Inmi31mxJktyRHqFlWiz25PxIfBh1Rux9qghX3l5e1/S/MGi2etaVMJ7C+jEsEg2ND1Vh2ZTsw&#xA;7HCqYYq7FXYq7FXyR/zlB+aba5rv+ENLmrpOkSH9IMh+Ga8XYqadVh+z/rV8BgVPv+cXfyjVynn3&#xA;WoaqpK6DA42JBKvdEex+GP6W/lOKvUvzv/Nm28geWq2xWTzDqIaPS4DQhKbNcSA/sR12H7TUHSpB&#xA;V4H/AM41/mTd6X+Ysun6rdNLbeaX4XE8zFj9eqWhkZmqS0jM0Z8Swr0wK+w8KuxV2Kvz+/NnRW0X&#xA;8yvMmnlBGiX80sKDoIp29aIf8i5FwKxPFXYq7FXYq7FXYq7FXYq7FXYq7FX1/wD84neUjpfkO516&#xA;ZKXGvXBaM71+rWpaKOoPT94ZD8qYVe3Yq7FXYq+efz8/5yEOltceU/J9wDqQ5Rapq0Zr9XPRoYGH&#xA;+7f5n/Y6D4vshXzV5f8AMWseX9btdb0q4a31G0k9WKYb1P7SsP2lYVDA9Rir7u/LD8xNL8++VoNZ&#xA;s6RXK/utRsq1aC4UAsvup+0jdx71AKvmr/nJL8o18ra3/iXR4OGgatIfXiQfDbXbVZlAHRJN2XwN&#xA;R0pgVF/84v8A5ptoeu/4Q1Samk6vIP0ezn4Ybxtgor0Wb7P+tTxOKvrfCrsVdirAvzr/ADDTyP5F&#xA;u9QhcDVrv/RNKXqfXkB/eU8IlBb50HfFXyF+VPkO88/eeLXSWZzaljdatc1JZbdCDIeR/ackID4m&#xA;uBX3LqWoaH5T8szXk/Gy0bR7avBBQJFCvFI0Hc7BVHc7YVfBX5g+d9U86+a7zX9QJUztwtbetVgt&#xA;0r6cS/6o6nuxJ74FY9FLLDKksTmOWNg8cikhlZTUEEdCDir76/KPz3H528iafrRYfXgv1bU0G3G6&#xA;hAEmw6BwQ4HgwwqzHFXYq+PP+cstCFj+ZMOpIhEer2MUrv2M0BaFh9EaR4FeK4q7FXYq7FXYq7FX&#xA;Yq7FXYq7FUVpWm3eqanZ6ZZpzu76aO2t08ZJXCIP+CbFX6J+XtEtNC0LT9Fs6/VdOt4raInqViQL&#xA;yandqVPvhVMMVdirwD/nIj89josc/k/yxcf7mJV4apqMTb2qt1ijI/3cw+037A6fF9lV8o4FdirP&#xA;vyX/ADMuPIXnCG9kZm0W942+rwCpBhJ2lCjq8RPIeIqv7WKvtfzDoei+bvK91pV5xudL1WCiyoQw&#xA;4uA0csbDaqmjqcKvgTzX5b1Xyl5ovdEvax3unTcVlWq8gPijlTuAy0YYFfa35KfmGnnjyLaahM4O&#xA;rWn+iaqvQ+vGB+8p4SqQ3zqO2FWe4q7FXxh/zk355PmL8wZNKt5A2neXg1pHQ1BuCQblvmGAj/2O&#xA;BXuP/OM/kBPLfkOPVrqLjqvmDjdSMw+JLb/j3j+RU+p/svbCrz//AJyz/MV5bq18jWEtIoAl3rPE&#xA;/akYVghanZV/eEHxU9sCvnDFXYq9s/5xa/MH9Becn8uXkvHTfMHFIeR+FL1K+kRU7eqKx7dW4+GK&#xA;vsHCrsVeAf8AOYGg/WfKmi64gq+nXj20lB0ju4+XInwDwKPpxV8o4FdirsVdirsVdirsVdirsVdi&#xA;r2L/AJxa8pfpn8yBqk0fKz0GBrkkiqfWJP3UCnwPxM6+6Yq+y8KuxV5J+f8A+cieR9GGlaTIreZ9&#xA;SjPoHY/VYTVTcMP5iaiMHvU/s0Kr4wmmmnmknnkaWaVi8srkszMxqzMx3JJ6nAqzFXYq7FX1r/zi&#xA;r+Yz6x5dn8o6hLyv9EUSWBY1Z7JjTjvWvoueP+qyjthVAf8AOWv5fi70q0862cf7/T+NpqlB1t5G&#xA;/cyH/Ukbj/sh4Yq83/5xk88ny7+YMelXEgXTvMIW0kqaAXAJNs3zLEx/7LAr7PwqkPnzzPF5X8na&#xA;vr70J0+2eSFW6NMRxhQ/60jKuKvhz8uPLFz52/MPTNJuGaUX9yZtRmNSxhSs07FvFlUgHxOBX3dr&#xA;+s6d5b8uX2r3QEdjpds8zRrRfhiWqonarUCqPHCr889e1q/1zWr7WNQf1Ly/me4nbenKRi1BXoo6&#xA;AdhgVA4q7FV8E81vPHPA7RTwsJIpUJVldTVWUjoQcVfoB+V/ne386+SdN11CouZU9LUIlp+7uovh&#xA;lWm9AT8S/wCSRhVlWKsL/Ofy/wDp78rvMengFpRaNdQgCrGS0IuEUe7GLj9OKvgbArsVdirsVdir&#xA;sVdirsVdirsVfZf/ADi35SOi/luNUmQLd6/M10SRRhbx/uoFPtszj2bCr2LFWMfmN590vyN5Vutd&#xA;v/3jR/u7O1BCtPcODwjU/RVj2UE4q+C/MfmHVvMeuXmt6tMZ9QvZDJNJ0HgqqOyqoCqOwwKluKux&#xA;V2KuxVk/5aecpvJ3nfStfQn0baYLexrvztpPgmWlRU8GJWv7QBxV96a1pWm+Y/L13plzSbTtUtmi&#xA;ZlNQY5koHUj51Bwq/PbVtO1Py55iutPmLQ6jpN08RkWqlZYHoHQ9eq1U4FffvkPzPF5o8naRr6UB&#xA;1C2SSZV6LMBxmQf6sisuFXkX/OXnmQ2flDStAjakmrXTTTAd4bRQaH5ySofoxVj3/OHvlcPc675o&#xA;lQERKmnWj/5T0mn+4CP78Csn/wCctvNZ0/yVYeXoXKza3c85wO9vaUdgfnK8ZHyOFXyPgV2KuxV2&#xA;Kvcv+cVPPx0fzbN5Xu5eOn66K2wY/Cl5EKrSpoPVSqnxIUYq+u8KuZQwKsKg7EHoRir87/Pflx/L&#xA;fnLWdCIYLYXcsUPLqYeVYm/2UZVsCpFirsVdirsVdirsVdirsVTDy9ot1rmvado1p/vTqNzFaxE9&#xA;A0rhOR9hWpxV+iek6ZaaVpdnplmvC0sYI7a3TwjiQIo+5cKolmVVLMQqqKsx2AAxV8Pfnz+aD+ev&#xA;N7izkJ8v6UWt9LUbCTeklwfeUr8P+SB3rgV5pirsVdirsVdirsVfb3/OOHmtvMH5WackzF7rR2bT&#xA;JyfCABoaewgdB8wcKvCv+crfK40v8xItYiTjb67bLKzdjcQUikAH+oIz8zgV6T/ziH5kN55Q1XQJ&#xA;GrJpN0s0IPaG7Umg+UkTn6cKvNP+cr9cN9+Zqacr1j0myhhMfYSzVnY/MpIn3YFe9/8AOOmgjSPy&#xA;l0aq8ZtQ9S/m2pX13Ppn/kUqYVfPn/OUvmBtT/NOexB/c6NawWigGoLuv1h2+f74KflgV5BirsVd&#xA;irsVVrO8urK8gvLSVobq2kSa3mQ0ZJI2DIynxBFcVfoB+WvnW186eS9N1+HistxHwvYV/wB13Mfw&#xA;zJTcgchVa/skHCrJ8VfI3/OW/lj6h54sdfjSkOtWoWVvG4tKIxP/ADyaID5YFeF4q7FXYq7FXYq7&#xA;FXYq7FXt/wDzid5T/Snny516aPlbaFbkxt2+s3NY49u/7sSH2NMVfX2FXin/ADlB+ZLeXfKi+W9P&#xA;l46tr6skxU/FFZD4ZT12Mp/djbpy7jFXx7gV2KuxV2KuxV2KuxV9Df8AOHnmAxa9r3l9yeF3bR3s&#xA;QJ2DW7+m9B4sJx/wOKs1/wCcuNBF55CsNXRay6VeqGbwhuVKN98ix4VeV/8AOKGuGx/M19OZ6R6t&#xA;ZTQiPsZYaTqfmEjf78CsK/OTVP0n+afmi6rULqE1up23W2PoKRQnakeKvuvy5paaT5e0zS0HFLC0&#xA;gtlHgIY1Tt/q4VfAHn/Vhq/nnzBqasXju9QuZYmJr+7aVvTH0JQYFSHFXYq7FXYq7FXvX/OKH5gf&#xA;ovzHceUb2SllrNZrHkdkvI13X/nrGtPmqjvir6zwq8u/5yP8nN5k/LK9lgTnfaKw1G3A6lIgROv/&#xA;ACKZmp3IGKviPArsVdirsVdirsVdirsVfbH/ADjT5TOgflfZ3MycbvW3bUZa0qI5AFgFfAxIr/7I&#xA;4Veo3Nzb2ttLc3MixW8CNLNK5oqog5MzHsABXFXwB+Z/ne486+dtR16QsLeV/SsIm/3Xax/DEtKm&#xA;hI+JqftE4FYrirsVdirsVdirsVdir0b/AJx61YaZ+b2gO78YrmSW0kFaVNxC6IP+RhXFX1f+d2lp&#xA;qf5T+Z7dhX07J7oextCLgH/klhV8efk3qn6M/NPyvdVoG1CG3Y7bLcn0GJqRtSTAqDsyNY/MyAuQ&#xA;RqOtLyatQfXuhU8h/rdcVff2qXi2OmXd632bWGSY7V2jQt0+jCr82ySTU7k9TgV2KuxV2KuxV2Kq&#xA;9hfXen31vf2chhu7SVJ7eVeqSRsGRh8mGKv0G8gecLPzh5Q03zDa0UXsQM8INfSnT4Zo99/hcEDx&#xA;G+FU/dEkRo5FDo4KujCoIOxBBxV8Cfm35El8k+etQ0UKfqJb6zpjn9q1lJMe/cpQoT4qcCsOxV2K&#xA;uxV2KuxV2Kpx5O8uT+ZfNWlaDBUPqNzHAzqKlEZv3klP8hKsflir9ELS0t7O0htLZBFb28axQxr0&#xA;VEAVVHyAwq8i/wCcovOjaD+Xv6JtpOF95hkNqKEhhaxgPcEU7GqxkeD4q+NMCuxV2KuxV2KuxV2K&#xA;uxVPvIN6LHz15dvS3FbbU7OVjufhSdCdhv0xV9/eZLNb7y7qlk263VnPCQfCSJl9/HCr88/Lt2bL&#xA;zBpl4DxNtdwTAk8aenIrde3TAqa/lj/5Mryn/wBtnT/+oqPFX3V+YBK+Q/MjKaEaXekEdQfq74Vf&#xA;nhgV2KuxV2KuxV2KuxV9A/8AOJfn02OvXnk67lpaaqDdaeGPS7iX94g/4yRLXf8AkHjir6swq8e/&#xA;5yX/AC2bzT5O/TVhEX1nQA8yqoq0tqaGeP3K8ea/Igbtir4zwK7FXYq7FXYq7FXvf/OI3lP675s1&#xA;LzLPHWHSIPQtWIP+9F1UFlP+TCrg/wCsMVfWWFXxd/zk95r/AE3+Zs9hE/K00KFLJADVTMf3k7fM&#xA;M/A/6uBXkeKuxV2KuxV2KuxV2KuxVEac7x6hbSISrpKjKw6ghgQcVfpIyqylWAZWFCDuCDhV+aeB&#xA;WT/lc7p+ZflMoxUnWLBSQabNcoCPpBpir7m/MNVbyB5mVgCp0q+BB3BBtnwq/PLArsVdirsVdirs&#xA;VdiqK0rVL3StTtNTsJDDe2UyXFtKP2ZI2DKafMYq/QbyN5ssvNvlPTPMNn8Md/CHeKtfTlUlJY67&#xA;fYkVlr3wqnpFdj0xV8Uf85CflW3krzU1/p8PHy5rDNLZ8RRIJeslttsAPtJ/k7b8TgV5TirsVdir&#xA;sVdir7k/5x68pHy3+VulrKnG81UHU7rr1uQDEN+hECxgjxrhVn+ralbaXpV7qd0eNrYwS3M7DtHC&#xA;hdvwXFX5zatqV1qmqXmp3bcrq+nkubhvGSZy7n/gmwKhcVdirsVdirsVdirsVdiqtYgm9twNyZEo&#xA;P9kMVfpPhV+aWBWVaYP0N+aVoG+D9Ha5Hyp8HH0Lsf8AA04/Rir721yx+v6JqFj/AMtdtNB05f3k&#xA;ZXp364Vfm/gV2KuxV2KuxV2KuxV2Kvoj/nEr8wPqup3nkm9kpDf8rzSuR6Tov76Mf68a8x/qnxxV&#xA;9S4VSHzx5M0jzj5avNA1VKwXK1imAq8My/3cqf5SH7xUHYnFXwV5y8oaz5R8xXeg6vF6d3at8Ljd&#xA;JYzuksZ7o43H3GhBGBUlxV2KuxVkP5e+Vn81edtG0ABjHfXKLcFdmWBPjnYe6xKxxV+hUcaRxrHG&#xA;oSNAFRQKAACgAGFXm3/ORmu/oj8pNZ4Pwn1D0rCH/K9eQeov0wq+Kvh3ArsVdirsVdirsVdirsVd&#xA;iqdeSLP67500Cy3/ANJ1K0h2oD+8nRdq7d8VfoLr10lpoeo3T/Yt7WaVq+CRlj+rCr88PLtob3zB&#xA;plmByNzdwQgEcq+pIq9O/XArI/zh059J/NbzNAhMbDUZbmMqaFfrDfWF40pSnqbYq+7tG1CPUtIs&#xA;dRjIMd7bxXCEdKSoHH68Kvz1846V+iPNutaUBRbC+ubZe3wxSsgPfqBgVKMVdirsVdirsVdirsVR&#xA;mi6vfaNq9lq1g/p3thNHcW79g8bBhUdxtuMVfoT5Q8z2Hmjyzp2v2B/0bUIVlCVqUfpJGxH7Ubgq&#xA;fcYVTjFXm/52/lDZ/mBoAa3CweY7BS2mXTbBx1a3lP8AI/Y/stv05AqviHUNPvdOvp7C+ge2vLV2&#xA;iuIJAVdHU0ZWB8MCqGKuxV9Ef84g+UvrGsav5qnjrHYxrY2TsKj1pvjmKn+ZI1UfJ8VfUuFXzz/z&#xA;mNqzReX/AC7pApxu7ua7bx/0WMRj/qJOKvljArsVdirsVdirsVdirsVdirP/AMhNKGp/m55chIJS&#xA;G4a7Yjt9VieZa/7KMYq+vPzk1NdN/KzzRcs3Hlp81urVp8VyPQWnvykGFXxt+Tel/pP80/K9rSoX&#xA;UIbhhtutsfXYGoO1I8Cs1/5yv0NrH8zU1EJSLVrKGYydjJDWBh8wkaffir6E/IDXBrH5S6BKWrLZ&#xA;wmxlH8ptXMSD/kWqnCr5p/5ya0E6V+bOoTBQsOrQwX0QH+UnoyfSZIWP04FeVYq7FXYq7FXYq7FX&#xA;Yq7FX0d/ziR5+MV5feSb2X93cBr7Sgx/3YoAniWv8yAOAP5WPfFX0/hV2KvG/wA+vyMh86Wja9oM&#xA;aQ+abVPjTZVvY1G0bnYCVQPgc/6rbUKqvjq5tri1uJba5ieC4gdo5oZFKOjoaMrKaEEEUIOBVPFX&#xA;3j+RvlI+V/yy0axlQJe3Uf1692o3q3P7zi3+UicUP+rhVnmKvk3/AJzB1B5PO2i6fWsdtpvrgeDT&#xA;zyK34QrgV4JirsVdirsVdirsVdirsVdir3z/AJxA0FrnzhrGtsoMWnWQt1J7S3UgII/2ELj6cVej&#xA;/wDOWOuix/LaHTFP73Vr2KMr/wAVQAzMfodE+/CryP8A5xQ0M335mvqLJWPSbKaYSdhLNSBR8ykj&#xA;/dgV6X/zl55bN55R0nX405SaVdNBMR2hu1HxH5SRIPpwqlX/ADh55mDWmveWJG+KJ01K1Wu5VwIZ&#xA;tvBSsf34FRf/ADl/5WNzoOj+ZoUq+nzNZ3bAb+lcDlGzH+VJIyB7vhV8r4FdirsVdirsVdirsVdi&#xA;qYeXtd1DQNcsda05/TvdPmSeA70JQ14tSlVYbMO4xV+hHlXzHp/mXy5p2vaea2mowrMikglCdnja&#xA;n7SMCre4wqmuKuxV4x+fH5D2/nG3k8weX40g80wJ+9i2RL5EGyOdgJQBRHPX7LbUKqvmr8tfJF15&#xA;g/MrSvLN9bvCfrX+5O3mVkdIrask6OpAKtxQrv3OBX34BTYdMKuxV8W/85SXrXH5t3cJJIs7S1hW&#xA;oAoDH621Ov8Ae98CvJMVdirsVdirsVdirsVdirsVfaP/ADjB5VOi/ljBfTJxutcme+aoowiFIoV9&#xA;wVTmP9bCryL/AJy38zrf+d7DQYnDRaLa8pgDuLi7Idgf+eSRn6cCs+/5xD8tmz8oarr8i0k1a6WG&#xA;EnvDaKRUfOSVx9GFXrvnzyxF5o8navoD0B1C2eOFm6LMByhc/wCrIqtir4p/KHzVN5J/MzTb285W&#xA;8CTtY6rG/wAPGKU+lJzr/vtqP/scCvtjzx5XtvNflHVfL9wQE1G3aOOQ1ISUfHDJt14SKrfRhV+e&#xA;t/Y3dhfXFjeRmG7tJXguIW+0kkbFXU+4YUwKoYq7FXYq7FXYq7FXYq7FX0t/ziT+YP8Avb5Hvpf5&#xA;r3R+R/6SIVqflIAP8s4q+l8KuxV2KpQnlHy5H5ofzTHYxprslubSW9UUZ4iVNHA2LD0wA1K02rTF&#xA;U3xV2Kvh7/nJJmP50eYQSSFFmAPAfUYDgV5nirsVdirsVdirsVdirsVTnyZ5YvPNPmnTPL9pUTah&#xA;OsRcCvCPrJIR4JGGY/LFX6CMdJ8u+XyfhtNJ0e0/2MVvbR+/ZUTCr8/PMutah5s823+rOjSXmr3b&#xA;PFAvxMPUakUS068V4qMCvvXyH5Yi8r+TtI0BKE6fbJHMy9GmI5TOP9aRmbCqfYq+MP8AnJvyMfLv&#xA;5gyarbxhdO8whruOgoBcAgXK/MsRJ/ssCvoT/nH3z6vm38vbQTyc9V0gCxvwxqzemv7qU/68dN/5&#xA;g2FXin/OVf5eHSPM0Pm6yi46drZEd7xFAl6i9f8AnrGvL/WDHArwjFXYq7FXYq7FXYq7FXYqmnlf&#xA;zDf+XPMWna7YGl1p06TxrUgMFPxRsRvxdaq3scVfoT5e13T9f0Ox1rTn9Sy1CFJ4TtUBxXi1OjKf&#xA;hYdjhVMMVdirsVdirsVfC/8AzkOrr+cnmQPUH1LcivgbSIr+GBXnWKuxV2KuxV2KuxV2KuxV9Pf8&#xA;4lfl60Nrd+eL5CHuQ1lpKsP91Kw9eYf6zrwX5N44qnX/ADlZ5/GkeVIfKlpJS/1w87rifiSziYE9&#xA;OnqyAL7gMMKvJf8AnGTyMfMX5gx6rcRhtO8vBbuSoqDcEkWy/MMDJ/scCvs/CrsVYF+df5eJ548i&#xA;3enwoDq1p/pelN0Prxg/u6+Eqkr86Htir5U/JD8xJfIXnuKW9LR6TfEWWsRsCOClvhlK/wA0L7na&#xA;vHkO+BX2X5z8qaT5y8qXuhXxDWt/F+6nX4jHIPiimQjurAN79Ohwq+AvM3lzVPLevXuh6pF6V9Yy&#xA;mKVd6NTdXUmlVdSGU9wcCpZirsVdirsVdirsVdirsVfTv/OI/n4y21/5JvZfigrfaSGO/BjS4iXt&#xA;sxDgf5THFX0hhV2KuxV2KuxV8Pf85JKw/OjzASKBhZlfcfUYB+sYFeZ4q7FXYq7FXYq7FXYqyn8t&#xA;PIWoeefN1noVpVIXPq39yOkNshHqP0O+/FfFiMVfd5OheUvLH7Njomi2v0RwQJ95NB8yffCr4O/M&#xA;LznqPnnzne65Mr1u5BHY2v2jHAp4wxADvTrTqxJ74FfZP5Kfl4nkfyLaafMgGrXf+l6q3U+vIB+7&#xA;r4RKAvzqe+FWe4q7FXYq+SP+coPysbQ9d/xfpcNNJ1eQ/pBUHww3jbljTos32v8AWr4jArOv+cYP&#xA;zZXVtLXyVq83+5PTkrpUrnea1Uf3W/V4e3+R/qnCqc/85E/k8fOOjDXtGir5k0uMj0lG91bCrGL/&#xA;AF0JLR+O69xRV8bMpUlWFCNiD1BwK7FXYq7FXYq7FXYq7FU38oeZr/yv5m07X7A/6Tp8yyhK0Dp0&#xA;kjY/yyISp9jir9CNC1mw1vRrLWNPf1LK/hS4t26HhIoYAjsR0I7HCqOxV2KuxV2Kvi7/AJylszb/&#xA;AJt3UpWgu7S1mBrWoCelX2/uqYFeR4qyf8v/AMuvMvnvWW0rQo4/UiT1bm5nYpDElaBnYBm3JoAq&#xA;k+3XFU4/MX8kPPHkKzhvtWS3utOmcRm9sneSNJCKqsnqJE61pseNPfFWAYq7FXYqr2NjeX97BY2U&#xA;LXF3cyLFbwIKs7ueKqo8STir7k/JX8qrX8v/ACuIJeMuu3/GXVrldxyAPCFD/JFyI9zU96Aq8b/5&#xA;yi/Npb+7PkbRpq2lo4bW5kO0k67rb1HVYzu/+Vt+zgVLv+cX/wArG1zXf8X6pDXSdIkH6PVx8M14&#xA;u4YV6rD9r/Wp4HFX1vhV2KuxV2Kpf5h0DS/MGi3mi6rCJ7C+jMU8Z2ND0ZT2ZTup7HFXwv548n+Z&#xA;vyv88iBZpIZrWQXWjapH8PqxBvgkXtyHR18dtx1Cvrn8nPzX078wfLon+CDXLIKmq2S1AVz0ljB3&#xA;9OShp4dD4kq8q/5yM/Ip5XuPOvla25SHlLrmnRDr3a5iQDr3lA/1v5sCvmbFXYq7FXYq7FXYq7FX&#xA;Yq9s/J//AJyNPkfyyfL2qabLqVrBK0mnyRSqjRJIeTxEMp+HnVga9zirO/8Aocby9/1Ll3/yPi/p&#xA;hV3/AEON5e/6ly7/AOR8X9MVd/0ON5e/6ly7/wCR8X9MVd/0ON5e/wCpcu/+R8X9MVeKfnN+ZNt+&#xA;YXmuHWrawbT4YLOOzEUjiR3KSSSF2KhQP72lPbArA8Vez/8AOMv5i+W/KHmDVbfX7gWVrqsMSxXj&#xA;hjGkkDMQr8QeIYSH4um2Ks8/5yI/OXyLq3kSby3oV/Hqt9qMkLO8ILRwxwyiUsZCAORMYWg3oTX3&#xA;KvlzArsVbjjeR1jjUvI5CoiipJOwAAxV9ff849/kcvlS1j8z+YYf+dluUP1a2cA/UonFCO/751+0&#xA;f2QeP81SqO/5yA/OeHyXpLaJo8wbzRfxngy0P1SJtvWbwc/7rH0n3VfL35b/AJf615/81w6TachE&#xA;zetqd+1WEMFfjkYnqx6KO7e1TgV94+XtA0vy/otnoulQiCwsYxFBGNzQdWY92Y7se5wqmGKuxV2K&#xA;uxV2KsO/NL8s9H8/+W30u9pDew1k02/Aq8E1Ke3JG6Ovf5gEKvjK2uPOv5Vee+XE2OtaY5WSNqmG&#xA;eJuoPT1IZV6feKEbBX2b+WH5n6D5/wBBXUNPb0b2Hiuo6czAyQSEfRyRqfA/f2IIBV49+ev/ADjk&#xA;ZmufNHkm2JmYtLqOiRD7XdpLVR37mMdf2f5cCvmRlKkqwoRsQeoOKuxV2KuxV2KuxV2KuxV2KuxV&#xA;2KuxV2KuxV2KuxV2KqtpaXV5dRWlpC9xdTuI4IIlLyO7GiqqrUkk9AMVfW/5Gf8AOPlv5WEHmPzP&#xA;Gs/mSnO1s6q8VnXodqh5h/NWi9t/iwqyj85/zl0v8v8ASDBCVuvMt4h+oWVahAaj15vBFPQftHYd&#xA;yFXx3p2nebPP3m4QQ+rqeu6rKXlmkNdz9qSRuiIg+gDYYFfbn5W/lno/kDy2ml2VJr2akmpX5FHn&#xA;mpT34ovRF7fMkkqzHFXYq7FXYq7FXYq7FWBfm5+Uei/mHoohmItNZtATp2ogAlSQf3Uu1WiY9R1B&#xA;3Huq+Pre589/lV51Yrz0zWrE8ZI2HKKeEnoR9mWKSmx+kUI2CvsD8qfzi8ufmDpw+rsLPXIEDX2l&#xA;O1XXsZIiaepHXuOnem2FWOfnD/zjxovnP1dY0Mx6V5lNWkalLa6P/FwUEq//ABYo/wBYHair5I8y&#xA;+VvMHlnVJNL12xksb2Pf05Bsy1oHRhVXU9mUkYFSrFXYq7FXYq7FXYq7FXYq7FXYq7FXYq7FXYqy&#xA;LyT5A80+dNUGnaBZtcOCv1i5aqwQKx+3NJSijrt1PYHFX2F+Uv5HeW/IFst0aaj5ikWk+pyLQJUb&#xA;x26mvBfE/abvtsCqXfnP+fekeR4JNK0kx6h5pdaCCvKK1qNnnoftb1VOvjQdVXyZp+nebvP/AJs9&#xA;GATarrupyF5ZXNep+KSRuiRp9wGwwK+0Pyj/ACj0X8vNFMMJF3rN2AdR1EgAsQB+6i2qsSnoOpO5&#xA;9irPcVdirsVdirsVdirsVdirsVYd+Zn5W+W/P+j/AFLVE9G9hBNhqUYHrQOfn9pGp8SHr7GhCr44&#xA;83+SPPP5XeZ4XnMtpNDIZNL1m1LCKUDvG46NQ0ZDv47HcK97/Kb/AJyf0vVlh0jzqyadqeyRaqKL&#xA;azHp+9/3y58fsf6vTCr2HzT5P8recNJ+oa7ZRahZuOcLn7aFhs8Mq0ZD7qd/lir5p/ML/nFHzFpZ&#xA;lvfJ9x+mbEVb6hMVjvEXwU/DHLT24nwU4FeF3+n3+n3clnf20tpdwnjLbzo0ciHwZGAYYqoYq7FX&#xA;Yq7FXYq7FXYq7FXYq7FUdo2hazrd8lhpFlPf3kn2YLdGkaniQoNAO5OwxV79+XX/ADibfTmK/wDP&#xA;Nz9VhqGGj2jBpW9ppxVE+Scv9YHFX0Vp2meWPKOhfV7KG20fRrJC7mqxRIo6vI7HcnuzGp74VfPn&#xA;5t/85RtKs2jeQmKIapPrrqQxHQ/VUbdf+MjCvgOjYFeNeQvy582/mFrjW2mRtIpfnqOqz8jDFzNS&#xA;0khqWduyj4m+84q+zvyz/K3y35A0f6lpaetezAG/1KQD1p3Hy+yi1+FB09zUkqzHFXYq7FXYq7FX&#xA;Yq7FXYq7FXYq7FUv1/y9ovmDS5tK1qzjvrCcUkglFRUdGU9VYdmG4xV8sfmn/wA4v67obTap5Q9T&#xA;V9JFXbT6cryFetFA/vlH+T8XseuBWH/l3+eHnvyFKtlHKb7SImKy6PeFiqUPxCJvtwt12Hw16qcV&#xA;fTnkL/nIL8vfNwit/rf6I1aSi/o++Ij5Me0Uv929ewqG/wAnCrMfM3kvyn5ptRb6/pdvqMYBEbyo&#xA;PUQN19OVaSJX/JYYq8X81f8AOIXly6LzeWtXn02Q1ItbtRcw17KrgxyIPduZxV5Xr/8AzjH+bGlF&#xA;mt7GDV4VBJksZ1JoP8ib0ZCf9VTgVgWq+SfOWkAnVNCv7FBtzuLaaNTvTZmUKcVSXFXYq7FXKrMw&#xA;VQSxNABuSTirINJ/L3z3q4RtM8vajdRvTjNHbSmLfp+848B9+Ks/0D/nFn809ScG+htdGh2Ja6nW&#xA;R6f5KW/rb+zEYq9Y8q/84keStPKTeYb+51uYGpgT/RLcjwKozSn5iQfLCr2LRvL/AJb8tac1vpNj&#xA;baVYxjlIIUSJaKPtyMKcjTqzGuKvNPP/APzkz5D8trNa6RJ/iDVkqojtmpbK3+XcUKkf8Y+X0Yq+&#xA;Y/Pn5qeePP16o1a6Y2vP/RdJtgUt0Ymi8YwSXbfZnJbAr0T8rP8AnF/XdcaHVPN/qaRpJo66fTje&#xA;TL1owP8Acqf8r4vYdcVfU+geXtF8v6XDpWi2cdjYQCkcEQoKnqzHqzHux3OFUwxV2KuxV2KuxV2K&#xA;uxV2KuxV2KuxV2KuxV2KsC/MP8lPIvnhHm1C0+qasR8Oq2lI56jp6mxWUf6wr4EYq+bfPP8AzjJ+&#xA;YPl0yXGlRjzDpygn1LRSLgAfzWxJYn/jGWwKxvyr+b35m+SZvqdlqU6wW54PpV8pliWnVPTl+KLf&#xA;+Qrir2Pyz/zmHZsFi8z6C8Tbc7rTnDqT3/cTFSo/56HFXp2hfn9+U2shRFr8NnKesV8GtafN5Qsf&#xA;3NhVm+naxpGpR+pp19b3sZFQ9vKkq06VqhbFXXmkaTe/722UFzvX99Ekm4FK/ED2xVKz+X/kImp8&#xA;t6USep+pW/8AzRiq5PIPkWNw8flzS0dTVWWytwQfYhMVTWz03TrJQlnaw2yCoCwxrGKE1Oygd8VQ&#xA;+qeY/L2koX1TU7SwRerXM8cIHf8AbZcVYJr3/ORn5SaRyX9M/pCZf902ETz1+UlFh/4fFXlvmj/n&#xA;MK6cPF5X0JYaii3eovzYE/8AFERA2/4yH5YFeNeZ/wAxvzC873K2+ranc34lcCHToRxhLV+ELbxB&#xA;VYjsaE4qzPyN/wA4yfmD5iMdxqsY8vacwB9S7Um4IP8ALbAhgf8AjIVxV9Jfl5+SnkXyOiTafafW&#xA;9WA+LVbukk9T19PYLEP9UV8ScKs9xV2KuxV2KuxV2KuxV2KuxV2KuxV2KuxV2KuxV2KuxV2KpD5n&#xA;8h+TvNEXDX9IttQIHFZpEAmUeCTLxkX/AGLYq8i8yf8AOIflC8LSaBqt1pMh3EMyrdwj2FTFIPpc&#xA;4q801z/nFD8zbEu2nPZatGP7sQzejKR7rOI0B/2ZwKwvUfye/NbSXDz+WdRDRkMJLaJrjiRvy5W/&#xA;qUpTriqGOp/mno/wm71zTuG9DJdwcfT+lacfwxVZH+aX5lxurr5s1glTUBr+5YfSGcg/Tiq3/lZ3&#xA;5kn/AKazWf8AuIXX/VTFWxefmZrACCfWtRBA4ryup6g7rQVb6MVRml/k3+aep0+q+V9QUHo1xCbZ&#xA;TsDUNP6YpvirNdD/AOcUPzNvijai9lpMZ/vBNN60oHssAkQn/ZjFXpflv/nEPyhZlZNf1W61aQbm&#xA;GFVtIT7GhlkP0OMKvXfLHkPyd5Xi4aBpFtp5I4tNGgMzDweZuUjf7JsVT7FXYq7FXYq7FXYq7FXY&#xA;q7FXYq//2Q==</xmpGImg:image>
               </rdf:li>
            </rdf:Alt>
         </xmp:Thumbnails>
      </rdf:Description>
      <rdf:Description rdf:about=""
            xmlns:xmpTPg="http://ns.adobe.com/xap/1.0/t/pg/"
            xmlns:stDim="http://ns.adobe.com/xap/1.0/sType/Dimensions#"
            xmlns:xmpG="http://ns.adobe.com/xap/1.0/g/">
         <xmpTPg:NPages>1</xmpTPg:NPages>
         <xmpTPg:HasVisibleTransparency>False</xmpTPg:HasVisibleTransparency>
         <xmpTPg:HasVisibleOverprint>False</xmpTPg:HasVisibleOverprint>
         <xmpTPg:MaxPageSize rdf:parseType="Resource">
            <stDim:w>159.999881</stDim:w>
            <stDim:h>170.000132</stDim:h>
            <stDim:unit>Millimeters</stDim:unit>
         </xmpTPg:MaxPageSize>
         <xmpTPg:PlateNames>
            <rdf:Seq>
               <rdf:li>Black</rdf:li>
            </rdf:Seq>
         </xmpTPg:PlateNames>
         <xmpTPg:SwatchGroups>
            <rdf:Seq>
               <rdf:li rdf:parseType="Resource">
                  <xmpG:groupName>Standaardstaalgroep</xmpG:groupName>
                  <xmpG:groupType>0</xmpG:groupType>
               </rdf:li>
            </rdf:Seq>
         </xmpTPg:SwatchGroups>
      </rdf:Description>
      <rdf:Description rdf:about=""
            xmlns:dc="http://purl.org/dc/elements/1.1/">
         <dc:format>image/svg+xml</dc:format>
         <dc:title>
            <rdf:Alt>
               <rdf:li xml:lang="x-default">logo</rdf:li>
            </rdf:Alt>
         </dc:title>
      </rdf:Description>
      <rdf:Description rdf:about=""
            xmlns:xmpMM="http://ns.adobe.com/xap/1.0/mm/"
            xmlns:stRef="http://ns.adobe.com/xap/1.0/sType/ResourceRef#"
            xmlns:stEvt="http://ns.adobe.com/xap/1.0/sType/ResourceEvent#">
         <xmpMM:RenditionClass>proof:pdf</xmpMM:RenditionClass>
         <xmpMM:DocumentID>xmp.did:0580117407206811822AF3AD8025B1F7</xmpMM:DocumentID>
         <xmpMM:InstanceID>xmp.iid:0580117407206811822AF3AD8025B1F7</xmpMM:InstanceID>
         <xmpMM:OriginalDocumentID>uuid:ec38ee42-ee45-2345-8ce5-846df3a024da</xmpMM:OriginalDocumentID>
         <xmpMM:DerivedFrom rdf:parseType="Resource">
            <stRef:instanceID>xmp.iid:0480117407206811822AF3AD8025B1F7</stRef:instanceID>
            <stRef:documentID>xmp.did:0480117407206811822AF3AD8025B1F7</stRef:documentID>
            <stRef:originalDocumentID>uuid:ec38ee42-ee45-2345-8ce5-846df3a024da</stRef:originalDocumentID>
            <stRef:renditionClass>proof:pdf</stRef:renditionClass>
         </xmpMM:DerivedFrom>
         <xmpMM:History>
            <rdf:Seq>
               <rdf:li rdf:parseType="Resource">
                  <stEvt:action>saved</stEvt:action>
                  <stEvt:instanceID>xmp.iid:0180117407206811822AF1ABEF4F9601</stEvt:instanceID>
                  <stEvt:when>2013-10-08T14:01:11+02:00</stEvt:when>
                  <stEvt:softwareAgent>Adobe Illustrator CS6 (Macintosh)</stEvt:softwareAgent>
                  <stEvt:changed>/</stEvt:changed>
               </rdf:li>
               <rdf:li rdf:parseType="Resource">
                  <stEvt:action>saved</stEvt:action>
                  <stEvt:instanceID>xmp.iid:0580117407206811822AF3AD8025B1F7</stEvt:instanceID>
                  <stEvt:when>2014-07-23T12:44:18+02:00</stEvt:when>
                  <stEvt:softwareAgent>Adobe Illustrator CS6 (Macintosh)</stEvt:softwareAgent>
                  <stEvt:changed>/</stEvt:changed>
               </rdf:li>
            </rdf:Seq>
         </xmpMM:History>
      </rdf:Description>
      <rdf:Description rdf:about=""
            xmlns:pdf="http://ns.adobe.com/pdf/1.3/">
         <pdf:Producer>Adobe PDF library 10.01</pdf:Producer>
      </rdf:Description>
   </rdf:RDF>
</x:xmpmeta>
                                                                                                    
                                                                                                    
                                                                                                    
                                                                                                    
                                                                                                    
                                                                                                    
                                                                                                    
                                                                                                    
                                                                                                    
                                                                                                    
                                                                                                    
                                                                                                    
                                                                                                    
                                                                                                    
                                                                                                    
                                                                                                    
                                                                                                    
                                                                                                    
                                                                                                    
                                                                                                    
                           
<?xpacket end="w"?>
	</metadata>
<g>
	<path d="M381.475,391.099c42.713-42.715,64.068-94.225,64.068-154.623c0-60.397-21.355-111.911-64.068-154.624
		c-42.715-42.714-94.226-64.07-154.624-64.07c-60.397,0-111.91,21.356-154.624,64.07c-42.714,42.713-64.07,94.227-64.07,154.624
		c0,60.398,21.356,111.908,64.07,154.623c42.714,42.715,94.227,64.07,154.624,64.07C287.249,455.169,338.76,433.814,381.475,391.099
		L381.475,391.099z"/>
	<path fill="#FFFFFF" d="M371.223,382.644c40.406-40.068,60.57-88.504,60.57-145.312c0-56.81-20.164-105.163-60.57-145.228
		c-40.064-40.407-88.504-60.568-145.312-60.568c-56.81,0-105.247,20.161-145.312,60.568
		c-40.322,40.065-60.483,88.418-60.483,145.228c0,56.809,20.161,105.244,60.483,145.312c40.066,40.406,88.503,60.566,145.312,60.566
		C282.719,443.21,331.158,423.05,371.223,382.644L371.223,382.644z M369.26,109.787h0.082
		c32.209,35.965,48.354,78.423,48.354,127.545c0,53.133-18.709,98.412-56.041,135.744c-37.33,37.33-82.607,55.953-135.743,55.953
		c-52.794,0-97.986-18.623-135.659-55.953c-37.332-37.332-56.041-82.611-56.041-135.744c0-48.268,15.633-90.127,46.814-125.75
		l124.211,254.405c0.684,1.023,1.367,1.535,2.051,1.535h62.531c2.308,0,3.505-1.195,3.505-3.502
		c-5.725-55.527,0.341-105.332,18.194-149.327C307.666,176.335,333.635,141.395,369.26,109.787L369.26,109.787z M125.021,73.907
		c29.814-18.793,63.473-28.19,100.89-28.19c33.913,0,64.583,7.603,92.004,22.724l-83.462,240.392
		c-41.688-37.159-69.111-75.261-82.181-114.302C141.851,162.24,132.795,122.003,125.021,73.907L125.021,73.907z"/>
	<path d="M369.342,109.787h-0.082c-35.625,31.608-61.594,66.548-77.741,104.905c-17.854,43.995-23.919,93.8-18.194,149.327
		c0,2.307-1.197,3.502-3.505,3.502h-62.531c-0.684,0-1.367-0.512-2.051-1.535L81.026,111.581
		c-31.181,35.623-46.814,77.482-46.814,125.75c0,53.133,18.709,98.412,56.041,135.744c37.673,37.33,82.865,55.953,135.659,55.953
		c53.136,0,98.413-18.623,135.743-55.953c37.332-37.332,56.041-82.611,56.041-135.744
		C417.695,188.209,401.551,145.751,369.342,109.787L369.342,109.787z M318.686,362.14c0.084,0.256,0.084,0.514,0.084,0.854
		c-0.682,5.041-3.502,7.518-8.543,7.518c-5.037,0-7.602-2.646-7.602-8.027c0-5.385,2.734-8.117,8.115-8.117
		c4.697,0.682,7.348,3.246,8.029,7.602L318.686,362.14L318.686,362.14z"/>
	<path fill="#FFFFFF" d="M318.77,362.994c0-0.34,0-0.598-0.084-0.854l0.084-0.172c-0.682-4.355-3.332-6.92-8.029-7.602
		c-5.381,0-8.115,2.732-8.115,8.117c0,5.381,2.564,8.027,7.602,8.027C315.268,370.511,318.088,368.035,318.77,362.994
		L318.77,362.994z"/>
	<path d="M125.021,73.907c7.774,48.097,16.83,88.333,27.251,120.624c13.07,39.041,40.493,77.143,82.181,114.302L317.915,68.44
		c-27.421-15.121-58.091-22.724-92.004-22.724C188.494,45.716,154.835,55.114,125.021,73.907L125.021,73.907z"/>
</g>
</svg>
